{
	"9NOW": "9Now",
	"AE": "A&E",
	"AJAZ": "Al Jazeera English",
	"ALL4": "Channel 4",
	"AMBC": "ABC",
	"AHA": "aha",
	"SS": "Simply South",
	"AMC": "AMC",
	"AMZN": "Amazon Prime",
	"ANLB": "AnimeLab",
	"ANPL": "Animal Planet",
	"AOL": "AOL",
	"ARD": "ARD",
	"AS": "Adult Swim",
	"ASTRO": "Astro GO",
	"ATK": "America's Test Kitchen",
	"ATVP": "AppleTV",
	"AUBC": "ABC Australia",
	"BCORE": "Bravia Core",
	"BKPL": "Blackpills",
	"BLU": "BluTV",
	"BNGE": "Binge",
	"BOOM": "Boomerang",
	"BRAV": "BravoTV",
	"CBC": "CBC",
	"CBS": "CBS",
	"CC": "Comedy Central",
	"CCGC": "Comedians in Cars Getting Coffee",
	"CHGD": "CHRGD",
	"CMAX": "Cinemax",
	"MMAX": "ManoramaMax",
	"CMOR": "CMOR",
	"CMT": "Country Music Television",
	"CN": "Cartoon Network",
	"CNBC": "CNBC",
	"CNLP": "Canal+",
	"COOK": "COOK",
	"CORE": "Bravia Core",
	"CR": "Crunchy Roll",
	"CRIT": "CRIT",
	"CRKL": "Crackle",
	"CSPN": "CSpan",
	"CTV": "CTV",
	"CUR": "CuriosityStream",
	"CW": "The CW",
	"CWS": "CWSeed",
	"Crave": "CRAV",
	"DAZN": "DAZN",
	"DCU": "DC Universe",
	"DDY": "Digiturk Diledigin Yerde",
	"DEST": "DEST",
	"DHF": "Deadhouse Films",
	"DISC": "Discovery",
	"DIY": "DIY Network",
	"DNSPHS": "Disney+ HotStar",
	"DOCC": "Doc Club",
	"DPLY": "DPlay",
	"DRPO": "DRPO",
	"DSCP": "Discovery Plus",
	"DSKI": "Daisuki",
	"DSNP": "Disney+",
	"DSNY": "Disney",
	"DTV": "DTV",
	"DramaFever": "DF",
	"EPIX": "ePix",
	"EROS": "EROS",
	"ESPN": "ESPN",
	"ESQ": "Esquire",
	"ETTV": "El Trece",
	"ETV": "E!",
	"FAM": "Family",
	"FANDOR": "Fandor",
	"FBWatch": "Facebook Watch",
	"FJR": "Family Jr",
	"FOOD": "Food Network",
	"FOX": "Fox",
	"FOXP": "Fox Premium",
	"FP": "UFC Fight Pass",
	"FPT": "FPT",
	"FREE": "Freeform",
	"FTV": "FTV",
	"FUNI": "FUNI",
	"FXTL": "Foxtel",
	"FYI": "FYI Network",
	"GC": "NHL GameCenter",
	"GLBL": "Global",
	"GLOB": "GloboSat Play",
	"GO90": "GO90",
	"Gaga": "GagaOOLala",
	"HBO": "HBO Go",
	"HGTV": "HGTV",
	"HIDI": "HIDI",
	"HIST": "History",
	"HLMK": "Hallmark",
	"HMAX": "HBO Max",
	"HS": "HotStar",
	"HTSR": "HotStar",
	"HULU": "Hulu",
	"HoiChoi": "Hoichoi",
	"ID": "Investigation Discovery",
	"IFC": "IFC",
	"IFX": "iflix",
	"INA": "National Audiovisual Institute",
	"INFINITY": "Mediaset Infinity",
	"ITV": "ITV",
	"JC": "JioCinema",
	"KAYO": "KAYO",
	"KNOW": "Knowledge Network",
	"KNPY": "KNPY",
	"LGP": "LGP",
	"LIFE": "Lifetime",
	"LN": "LN",
	"MBC": "MBC",
	"MNBC": "MSNBC",
	"MTOD": "Motor Trend OnDemand",
	"MTV": "MTV",
	"MUBI": "Mubi",
	"NATG": "National Geographic",
	"NBA": "NBA TV",
	"NBC": "NBC",
	"NF": "Netflix",
	"NFB": "National Film Board",
	"NFL": "NFL",
	"NFLN": "NFL Now",
	"NICK": "Nickelodeon",
	"NOW": "NOW",
	"NRK": "Norsk Rikskringkasting",
	"ODK": "OnDemandKorea",
	"OPTO": "Opto",
	"OWN": "Oprah Winfrey Network",
	"PA": "PA",
	"PBS": "PBS",
	"PBSK": "PBS Kids",
	"PCOK": "Peacock",
	"PLAY": "PLAY",
	"PLUZ": "Pluzz",
	"PMNP": "PMNP",
	"PMNT": "PMNT",
	"POGO": "PokerGO",
	"PSN": "Playstation Network",
	"PUHU": "PUHU",
	"QIBI": "QIBI",
	"RAI": "Rai Play",
	"RED": "YouTube Red",
	"RKTN": "Rakuten TV",
	"ROKU": "The Roku Channel",
	"RSTR": "RSTR",
	"RTE": "RTE One",
	"RUUTU": "RUUTU",
	"SBS": "SBS",
	"SCI": "Science Channel",
	"SESO": "SeeSo",
	"SHMI": "Shomi",
	"SHO": "Showtime",
	"SKY": "Sky",
	"SNET": "Sportsnet",
	"SNXT": "Sun NXT",
	"SONY": "Sony",
	"SPIK": "Spike",
	"SPRT": "Sprout",
	"STAN": "Stan",
	"STARZ": "Starz",
	"STRP": "Star+",
	"STZ": "STZ",
	"SVT": "Sveriges Television",
	"SWER": "SwearNet",
	"SYFY": "Syfy",
	"Spike TV": "SPKE",
	"TBS": "TBS",
	"TEN": "TEN",
	"TFOU": "TFou",
	"TIMV": "TIMV",
	"TK": "Tentkotta",
	"CHTV": "Chaupal",
	"TLC": "TLC",
	"TOU": "TOU",
	"TRVL": "TRVL",
	"TUBI": "TubiTV",
	"TV3": "TV3 Ireland",
	"TV4": "TV4 Sweeden",
	"TVING": "TVING",
	"TVL": "TV Land",
	"TVNZ": "TVNZ",
	"UFC": "UFC",
	"UKTV": "UKTV",
	"UNIV": "Univision",
	"USAN": "USA Network",
	"VH1": "VH1",
	"VIAP": "VIAP",
	"VICE": "Viceland",
	"VIKI": "Viki",
	"VIMEO": "Vimeo",
	"VLCT": "Velocity",
	"VMEO": "Vimeo",
	"VOOT": "Voot",
	"VRV": "VRV",
	"VUDU": "VUDU",
	"WME": "WatchMe",
	"WNET": "W Network",
	"WWEN": "WWE Network",
	"XBOX": "Xbox Video",
	"YHOO": "Yahoo",
	"YT": "YouTube",
	"ZDF": "ZDF",
	"ZEE5": "Zee5",
	"iP": "BBC iPlayer",
	"iQIYI": "iQIYI",
	"iT": "iTunes"
}
