{
	"9NOW": "9NOW",
	"9Now": "9NOW",
	"A&E": "AE",
	"ABC Australia": "AUBC",
	"ABC": "AMBC",
	"AE": "AE",
	"AJAZ": "AJAZ",
	"ALL4": "ALL4",
	"AMBC": "AMBC",
	"AMC": "AMC",
	"AMZN": "AMZN",
	"ANLB": "ANLB",
	"ANPL": "ANPL",
	"AOL": "AOL",
	"ARD": "ARD",
	"AS": "AS",
	"ASTRO": "ASTRO",
	"ATK": "ATK",
	"ATVP": "ATVP",
	"AUBC": "AUBC",
	"Adult Swim": "AS",
	"Al Jazeera English": "AJAZ",
	"Amazon Prime": "AMZN",
	"America's Test Kitchen": "ATK",
	"Animal Planet": "ANPL",
	"AnimeLab": "ANLB",
	"AppleTV": "ATVP",
	"BBC iPlayer": "iP",
	"BCORE": "BCORE",
	"BKPL": "BKPL",
	"BOOM": "BOOM",
	"BRAV": "BRAV",
	"Binge": "BNGE",
	"Blackpills": "BKPL",
	"BluTV": "BLU",
	"Boomerang": "BOOM",
	"Bravia Core": "BCORE",
	"BravoTV": "BRAV",
	"CBC": "CBC",
	"CBS": "CBS",
	"CC": "CC",
	"CCGC": "CCGC",
	"CHGD": "CHGD",
	"CHRGD": "CHGD",
	"CHTV": "CHTV",
	"CMAX": "CMAX",
	"CMOR": "CMOR",
	"CMT": "CMT",
	"CN": "CN",
	"CNBC": "CNBC",
	"CNLP": "CNLP",
	"COOK": "COOK",
	"CORE": "CORE",
	"CR": "CR",
	"CRIT": "CRIT",
	"CRKL": "CRKL",
	"CSPN": "CSPN",
	"CSpan": "CSPN",
	"CTV": "CTV",
	"CUR": "CUR",
	"CW": "CW",
	"CWS": "CWS",
	"CWSeed": "CWS",
	"Canal+": "CNLP",
	"Cartoon Network": "CN",
	"Channel 4": "ALL4",
	"Cinemax": "CMAX",
	"Comedians in Cars Getting Coffee": "CCGC",
	"Comedy Central": "CC",
	"Country Music Television": "CMT",
	"Crackle": "CRKL",
	"Crave": "CRAV",
	"Crunchy Roll": "CR",
	"CuriosityStream": "CUR",
	"DAZN": "DAZN",
	"DC Universe": "DCU",
	"DCU": "DCU",
	"DDY": "DDY",
	"DEST": "DEST",
	"DHF": "DHF",
	"DISC": "DISC",
	"DIY Network": "DIY",
	"DIY": "DIY",
	"DOCC": "DOCC",
	"DPLY": "DPLY",
	"DPlay": "DPLY",
	"DRPO": "DRPO",
	"DSKI": "DSKI",
	"DSNP": "DSNP",
	"DSNY": "DSNY",
	"DTV": "DTV",
	"Daisuki": "DSKI",
	"Deadhouse Films": "DHF",
	"Digiturk Diledigin Yerde": "DDY",
	"Discovery Plus": "DSCP",
	"Discovery": "DISC",
	"Disney+": "DSNP",
	"Disney": "DSNP",
	"Doc Club": "DOCC",
	"DramaFever": "DF",
	"E!": "ETV",
	"EPIX": "EPIX",
	"EROS": "EROS",
	"ESPN": "ESPN",
	"ESQ": "ESQ",
	"ETTV": "ETTV",
	"ETV": "ETV",
	"El Trece": "ETTV",
	"Esquire": "ESQ",
	"FAM": "FAM",
	"FJR": "FJR",
	"FOOD": "FOOD",
	"FOX": "FOX",
	"FPT": "FPT",
	"FREE": "FREE",
	"FTV": "FTV",
	"FUNI": "FUNI",
	"FYI Network": "FYI",
	"FYI": "FYI",
	"Facebook Watch": "FBWatch",
	"Family Jr": "FJR",
	"Family": "FAM",
	"Fandor": "FANDOR",
	"Food Network": "FOOD",
	"Fox Premium": "FOXP",
	"Fox": "FOX",
	"Foxtel": "FXTL",
	"Freeform": "FREE",
	"GC": "GC",
	"GLBL": "GLBL",
	"GLOB": "GLOB",
	"GO90": "GO90",
	"GagaOOLala": "Gaga",
	"Global": "GLBL",
	"GloboSat Play": "GLOB",
	"HBO Go": "HBO",
	"HBO Max": "HMAX",
	"NOW TV": "NOW TV",
	"NOWTV": "NOWTV",
	"NOW": "NOW",
	"HBO": "HBO",
	"HGTV": "HGTV",
	"HIDI": "HIDI",
	"HIST": "HIST",
	"HLMK": "HLMK",
	"HMAX": "HMAX",
	"HS": "HTSR",
	"HTSR": "HTSR",
	"HULU": "HULU",
	"Hallmark": "HLMK",
	"History": "HIST",
	"HotStar": "HTSR",
	"Hotstar": "HTSR",
	"Hulu": "HULU",
	"ID": "ID",
	"IFC": "IFC",
	"ITV": "ITV",
	"Mediaset Infinity": "INFINITY",
	"Investigation Discovery": "ID",
	"JC": "JC",
	"KAYO": "KAYO",
	"KNOW": "KNOW",
	"KNPY": "KNPY",
	"Knowledge Network": "KNOW",
	"LGP": "LGP",
	"LIFE": "LIFE",
	"LN": "LN",
	"Lifetime": "LIFE",
	"MBC": "MBC",
	"MNBC": "MNBC",
	"MSNBC": "MNBC",
	"MTOD": "MTOD",
	"MTV": "MTV",
	"MUBI": "MUBI",
	"MMAX": "MMAX",
	"ManoramaMax": "MMAX",
	"Manorama Max": "MMAX",
	"Motor Trend OnDemand": "MTOD",
	"NATG": "NATG",
	"NBA TV": "NBA",
	"NBA": "NBA",
	"NBC": "NBC",
	"NF": "NF",
	"NFL Now": "NFLN",
	"NFL": "NFL",
	"NFLN": "NFLN",
	"NHL GameCenter": "GC",
	"NICK": "NICK",
	"NRK": "NRK",
	"National Audiovisual Institute": "INA",
	"National Film Board": "NFB",
	"National Geographic": "NATG",
	"Netflix": "NF",
	"Nickelodeon": "NICK",
	"Norsk Rikskringkasting": "NRK",
	"OnDemandKorea": "ODK",
	"Oprah Winfrey Network": "OWN",
	"Opto": "OPTO",
	"PA": "PA",
	"PBS Kids": "PBSK",
	"PBS": "PBS",
	"PBSK": "PBSK",
	"PCOK": "PCOK",
	"PLAY": "PLAY",
	"PLUZ": "PLUZ",
	"PMNP": "PMNP",
	"PMNT": "PMNT",
	"POGO": "POGO",
	"PSN": "PSN",
	"PUHU": "PUHU",
	"Peacock": "PCOK",
	"Playstation Network": "PSN",
	"Pluzz": "PLUZ",
	"PokerGO": "POGO",
	"QIBI": "QIBI",
	"Rai Play": "RAI",
	"RED": "RED",
	"RKTN": "RKTN",
	"RSTR": "RSTR",
	"RTE One": "RTE",
	"RTE": "RTE",
	"RUUTU": "RUUTU",
	"Rakuten TV": "RKTN",
	"SBS": "SBS",
	"SESO": "SESO",
	"SHMI": "SHMI",
	"SHO": "SHO",
	"SNET": "SNET",
	"SNXT": "SNXT",
	"SPIK": "SPIK",
	"SPRT": "SPRT",
	"SS": "SS",
	"STAN": "STAN",
	"STARZ": "STARZ",
	"STRP": "STRP",
	"STZ": "STZ",
	"SVT": "SVT",
	"SWER": "SWER",
	"SYFY": "SYFY",
	"Science Channel": "SCI",
	"SeeSo": "SESO",
	"Shomi": "SHMI",
	"Showtime": "SHO",
	"Sky": "SKY",
	"Sony": "SONY",
	"Spike TV": "SPKE",
	"Spike": "SPIK",
	"Sportsnet": "SNET",
	"Sprout": "SPRT",
	"Stan": "STAN",
	"Star+": "STRP",
	"Starz": "STZ",
	"Sveriges Television": "SVT",
	"SwearNet": "SWER",
	"Syfy": "SYFY",
	"TBS": "TBS",
	"TEN": "TEN",
	"TFOU": "TFOU",
	"TFou": "TFOU",
	"TIMV": "TIMV",
	"TK": "TK",
	"TLC": "TLC",
	"TOU": "TOU",
	"TRVL": "TRVL",
	"TUBI": "TUBI",
	"TV Land": "TVL",
	"TV3 Ireland": "TV3",
	"TV3": "TV3",
	"TV4 Sweeden": "TV4",
	"TV4": "TV4",
	"TVING": "TVING",
	"TVL": "TVL",
	"TVNZ": "TVNZ",
	"The CW": "CW",
	"The Roku Channel": "ROKU",
	"TubiTV": "TUBI",
	"UFC Fight Pass": "FP",
	"UFC": "UFC",
	"UKTV": "UKTV",
	"UNIV": "UNIV",
	"USA Network": "USAN",
	"USAN": "USAN",
	"Univision": "UNIV",
	"VH1": "VH1",
	"VIAP": "VIAP",
	"VICE": "VICE",
	"VIMEO": "VIMEO",
	"VLCT": "VLCT",
	"VMEO": "VMEO",
	"VRV": "VRV",
	"VUDU": "VUDU",
	"Velocity": "VLCT",
	"Viceland": "VICE",
	"Viki": "VIKI",
	"Vimeo": "VMEO",
	"Voot": "VOOT",
	"W Network": "WNET",
	"WME": "WME",
	"WNET": "WNET",
	"WWE Network": "WWEN",
	"WWEN": "WWEN",
	"WatchMe": "WME",
	"XBOX": "XBOX",
	"Xbox Video": "XBOX",
	"YHOO": "YHOO",
	"YT": "YT",
	"Yahoo": "YHOO",
	"YouTube Red": "RED",
	"ZDF": "ZDF",
	"ZEE5": "ZEE5",
	"Zee5": "ZEE5",
	"ePix": "EPIX",
	"hoichoi": "HoiChoi",
	"iP": "iP",
	"iQIYI": "iQIYI",
	"iT": "iT",
	"iTunes": "iT",
	"iflix": "IFX"
}
